Data Analyst Nanodegree Project 6: Exploring 5 Years of Cryptocurrency Data
…
Here we can see that etheruem also grew a lot in 2017, up almost 100x.

Now, lets see who were the biggest gainers in 2017. Because data on the smallest tokens can be unreliable I will look at only tokens that ended the year with at least $100 million in market cap.

## # A tibble: 50 x 3
## # Groups:   name [50]
##    name              gain_ratio     market
##    <fct>                  <dbl>      <dbl>
##  1 experience-points      40356  206952000
##  2 verge                  10118 2034410000
##  3 bitconnect              2877 2355660000
##  4 xtrabytes               2842  161560000
##  5 raiblocks               2497 1603630000
##  6 pivx                    1475  525926000
##  7 hempcoin                1326  104694000
##  8 shift                   1103  101449000
##  9 triggers                1087  171241000
## 10 einsteinium              700  157142000
## # ... with 40 more rows
…
